<svg width="32" height="32" viewBox="0 0 32 32" fill="none" xmlns="http://www.w3.org/2000/svg">
<path d="M19.3926 16.498C21.7333 15.2727 23.3333 12.8254 23.3333 10C23.3333 5.95002 20.05 2.66669 16 2.66669C11.95 2.66669 8.66665 5.95002 8.66665 10C8.66665 12.8254 10.2666 15.2727 12.6073 16.498C7.25998 18.06 3.33331 23.206 3.33331 29.3334H28.6666C28.6666 23.206 24.74 18.06 19.3926 16.498ZM9.99998 10C9.99998 6.69135 12.6913 4.00002 16 4.00002C19.3086 4.00002 22 6.69135 22 10C22 13.3087 19.3086 16 16 16C12.6913 16 9.99998 13.3087 9.99998 10ZM16 17.3334C21.8233 17.3334 26.6353 22.0087 27.264 28H4.73598C5.36465 22.0087 10.1766 17.3334 16 17.3334Z" fill="#004632"/>
</svg>
